{
    "id": "scrpgfantasyconversion",
    "title": "SCRPG Fantasy Conversion (Unofficial)",
    "description": "A system for playing Fantasy Games using a conversion of Sentinel Comics the Roleplaying Game",
    "authors": [
        {
            "name": "RabidRaccoon"
        },
        {
            "name": "GamerDragon"
        },
        {
            "name": "RzachPrime"
        }
    ],
    "version": "1.6.1",
    "compatibility": {
        "minimum": "11",
        "verified": "11",
        "maximum": "11"
    },
    "esmodules": [
        "SCRPG.js"
    ],
    "styles": [
        "dist/SCRPG.css"
    ],
    "packs": [
        {
            "name": "macros",
            "label": "SCRPG Macros",
            "path": "packs/macros.db",
            "type": "Macro"
        }
    ],
    "languages": [
        {
            "lang": "en",
            "name": "English",
            "path": "lang/en.json"
        }
    ],
    "gridDistance": 5,
    "gridUnits": "ft",
    "primaryTokenAttribute": "health",
    "initiative": "N/A",
    "url": "https://gitlab.com/Rzachprime/scrpg-fantasy-conversion",
    "manifest": "https://gitlab.com/Rzachprime/scrpg-fantasy-conversion/-/raw/main/system.json",
    "download": "https://gitlab.com/Rzachprime/scrpg-fantasy-conversion/-/archive/main/scrpg-fantasy-conversion-main.zip"
}